C:\Users\esteb\Downloads\ACTIVIDAD ISOF\Supermercado\src\main\java\com\example\Supermercado\models\Cajero.java
C:\Users\esteb\Downloads\ACTIVIDAD ISOF\Supermercado\src\main\java\com\example\Supermercado\models\Reponedor.java
C:\Users\esteb\Downloads\ACTIVIDAD ISOF\Supermercado\src\main\java\com\example\Supermercado\models\Merma.java
C:\Users\esteb\Downloads\ACTIVIDAD ISOF\Supermercado\src\main\java\com\example\Supermercado\dao\Datos.java
C:\Users\esteb\Downloads\ACTIVIDAD ISOF\Supermercado\src\main\java\com\example\Supermercado\SupermercadoApplication.java
C:\Users\esteb\Downloads\ACTIVIDAD ISOF\Supermercado\src\main\java\com\example\Supermercado\models\Producto.java
C:\Users\esteb\Downloads\ACTIVIDAD ISOF\Supermercado\src\main\java\com\example\Supermercado\controllers\ApiController.java
C:\Users\esteb\Downloads\ACTIVIDAD ISOF\Supermercado\src\main\java\com\example\Supermercado\models\Usuario.java
